<?xml version="1.0" encoding="utf-8"?>
<!-- Generator: Adobe Illustrator 21.0.0, SVG Export Plug-In . SVG Version: 6.00 Build 0)  -->
<svg version="1.1" id="Layer_1" xmlns="http://www.w3.org/2000/svg" xmlns:xlink="http://www.w3.org/1999/xlink" x="0px" y="0px"
	 viewBox="0 0 800.3 800.3" style="enable-background:new 0 0 800.3 800.3;" xml:space="preserve">
<style type="text/css">
	.logo_shadow{opacity:0.3;}
	.logo_background{fill:#FF0000;}
	.logo_paper{fill:#FFFFFF;}
	.logo_letters{fill:#00FF00;}
</style>
<g id="shadow" class="logo_shadow">
	<path id="XMLID_415_" d="M787.5,399.8c0-10.8-0.3-22-1.4-32.5L568.4,149.6L203.1,658.8L324,779.7c24.7,4.7,50.1,7.4,76.2,7.4
		C614.1,787.1,787.5,613.8,787.5,399.8z"/>
</g>
<g id="background_letters">
	<path id="XMLID_101_" class="logo_background" d="M400.2,0c220.4,0,400.2,179.4,400.2,400.2S620.9,800.3,400.2,800.3S0,620.9,0,400.2
		C0,179.4,179.4,0,400.2,0z M774.6,399.8c0-206.5-167.9-374.8-374.8-374.8C193.3,25.1,25.1,193,25.1,399.8
		c0,206.5,167.9,374.8,374.8,374.8C606.7,774.6,774.6,606.7,774.6,399.8z"/>
	<path id="XMLID_97_" class="logo_background" d="M605.7,520c39.6,82.6,38.3,123.2,38.3,124.9l-0.3,10.5l-10.2-1.7
		c-168.6-29.8-294.5-2.7-348.4,8.8c-4.1,1-7.8,1.7-11.2,2.4c-16.3,3.4-31.1,4.4-43.3,4.4c-24.4,0-39.6-4.4-40.6-4.7l-10.2-3l4.4-9.5
		c10.5-22.7,12.2-52.5,8.5-89c-3.7,1-7.8,2-11.5,3l-5.4,1.4l-60.3-222.1l5.4-1.4c13.5-3.7,27.1-7.1,41-10.5
		c-1-68,8.1-123.2,8.8-126.3l0.7-3l2.4-2c13.5-11.8,116.5-64.3,128.3-70.1l2.7-1.4l3,0.7c107.7,19.6,252.9,8.1,254.3,8.1l13.5-1
		l-4.1,12.9c-0.3,1-24,76.9-29.5,137.8c27.4,0,54.8,0.7,82.3,2l5.8,0.3l-12.2,229.9l-5.4-0.3C609.7,520.4,607.7,520,605.7,520z
		 M625,633.8c-2.4-16.6-9.8-52.5-37.2-109c-1-2-1.7-3.7-2.7-5.4c-126.3-3.7-251.9,9.5-374.8,39.3c3.7,35.9,3,65.7-5.8,90.7
		c12.5,2,35.9,3.7,65-2.4c3.4-0.7,6.8-1.4,10.8-2.4C334.8,633.1,458.7,606.3,625,633.8z M523.4,288.4c4.1-48.8,19.3-106,26.7-130.7
		c-37.9,2.4-150.7,7.4-240.7-8.1l-22,97.8L187.6,217c-2.4,16.3-7.8,60.3-7.4,112.4C292.8,303.7,408,289.8,523.4,288.4z"/>
</g>
<g id="foreground">
	<g id="paper_id">
		<path id="XMLID_404_" class="logo_paper" d="M588.1,524.8c27.1,56.2,34.9,92.4,37.2,109c-166.2-27.4-290.5-0.7-344,10.8
			c-4.1,1-7.8,1.7-10.8,2.4c-29.1,6.1-52.8,4.1-65,2.4c8.5-24.7,9.1-54.8,5.8-90.7c122.6-30.1,248.5-43.3,374.8-39.3
			C586,521,587,523.1,588.1,524.8z"/>
		<path id="XMLID_403_" class="logo_paper" d="M550.1,157.8c-7.1,25.1-22.7,81.9-26.7,130.7c-115.8,1.4-230.6,15.2-343.3,41
			c-0.3-52.1,5.1-96.5,7.4-112.4l99.9,30.5l22-97.8C399.5,164.9,511.9,160.1,550.1,157.8z"/>
	</g>
	<g id="letter_id">
		<path id="XMLID_31_" class="logo_letters" d="M208.5,447.6c3.4,13.9,7.1,27.8,10.5,41.6c17.3-4.1,34.9-7.8,52.5-11.5
			c-9.1-44.7-18.6-89.7-28.8-134.4c11.2-2.4,22.3-4.4,33.5-6.1c11.2,54.2,21.3,108.3,30.8,162.8c-37.9,6.4-75.2,14.6-112.1,24.4
			c-6.1-23-12.5-46-19-68.7C186.5,453,197.4,449.9,208.5,447.6z"/>
		<path id="XMLID_28_" class="logo_letters" d="M361.6,491.9c-10.8,1.4-21.3,2.7-32.2,4.4c-8.5-54.5-17.6-109-27.8-163.5
			c43-6.4,86.3-11.2,130-13.9c3,32.2,5.8,64,8.1,96.1c-29.5,1.7-58.6,4.4-87.7,8.1C355.5,446.2,358.9,469.2,361.6,491.9z
			 M342.3,356.2c2,13.5,4.1,27.1,6.1,40.6c19-2.4,37.6-4.4,56.5-6.1c-1.4-13.5-3-27.1-4.4-40.6C381.2,351.4,361.9,353.8,342.3,356.2
			z"/>
		<path id="XMLID_26_" class="logo_letters" d="M500.7,454c28.8-0.3,57.6,0,86.7,1.7c-0.3,9.5-0.7,19-1,28.4c-39.3-2-78.5-2.4-117.5-0.7
			c-2.7-55.2-5.8-110.4-10.2-165.6c43.7-2,88-1.7,132,0.3c0,9.5-0.3,19-0.3,28.4c-31.1-1.7-62.3-2-93.4-1.4
			C498.3,381.2,499.7,417.8,500.7,454z"/>
	</g>
</g>
</svg>
